%YAML 1.1
%TAG !u! tag:unity3d.com,2011:
--- !u!1001 &6783980605660069929
PrefabInstance:
  m_ObjectHideFlags: 0
  serializedVersion: 2
  m_Modification:
    m_TransformParent: {fileID: 0}
    m_Modifications:
    - target: {fileID: 4793989065329528225, guid: 74c54e237c8e840488695971321bdb8e,
        type: 3}
      propertyPath: m_LocalPosition.x
      value: -14.41764
      objectReference: {fileID: 0}
    - target: {fileID: 4793989065329528225, guid: 74c54e237c8e840488695971321bdb8e,
        type: 3}
      propertyPath: m_LocalPosition.y
      value: 1.7
      objectReference: {fileID: 0}
    - target: {fileID: 4793989065329528225, guid: 74c54e237c8e840488695971321bdb8e,
        type: 3}
      propertyPath: m_LocalPosition.z
      value: -16.666147
      objectReference: {fileID: 0}
    - target: {fileID: 4793989065329528225, guid: 74c54e237c8e840488695971321bdb8e,
        type: 3}
      propertyPath: m_LocalRotation.x
      value: 0
      objectReference: {fileID: 0}
    - target: {fileID: 4793989065329528225, guid: 74c54e237c8e840488695971321bdb8e,
        type: 3}
      propertyPath: m_LocalRotation.y
      value: 0
      objectReference: {fileID: 0}
    - target: {fileID: 4793989065329528225, guid: 74c54e237c8e840488695971321bdb8e,
        type: 3}
      propertyPath: m_LocalRotation.z
      value: 0
      objectReference: {fileID: 0}
    - target: {fileID: 4793989065329528225, guid: 74c54e237c8e840488695971321bdb8e,
        type: 3}
      propertyPath: m_LocalRotation.w
      value: 1
      objectReference: {fileID: 0}
    - target: {fileID: 4793989065329528225, guid: 74c54e237c8e840488695971321bdb8e,
        type: 3}
      propertyPath: m_RootOrder
      value: 0
      objectReference: {fileID: 0}
    - target: {fileID: 4793989065329528225, guid: 74c54e237c8e840488695971321bdb8e,
        type: 3}
      propertyPath: m_LocalEulerAnglesHint.x
      value: 0
      objectReference: {fileID: 0}
    - target: {fileID: 4793989065329528225, guid: 74c54e237c8e840488695971321bdb8e,
        type: 3}
      propertyPath: m_LocalEulerAnglesHint.y
      value: 0
      objectReference: {fileID: 0}
    - target: {fileID: 4793989065329528225, guid: 74c54e237c8e840488695971321bdb8e,
        type: 3}
      propertyPath: m_LocalEulerAnglesHint.z
      value: 0
      objectReference: {fileID: 0}
    - target: {fileID: 4793989065329528231, guid: 74c54e237c8e840488695971321bdb8e,
        type: 3}
      propertyPath: m_Name
      value: RocketBulletL1 1
      objectReference: {fileID: 0}
    m_RemovedComponents: []
  m_SourcePrefab: {fileID: 100100000, guid: 74c54e237c8e840488695971321bdb8e, type: 3}
